<svg width="44" height="44" viewBox="0 0 44 44" fill="none" xmlns="http://www.w3.org/2000/svg">
<path d="M14.6667 13.9854C15.5493 13.424 16.726 13.9438 16.8991 14.9827L17.3082 17.4369C17.403 18.0062 17.1552 18.5782 16.675 18.8984L15.2054 19.8781C14.8548 18.691 14.6667 17.4341 14.6667 16.1333V13.9854Z" fill="black"/>
<path d="M27.8667 29.3333C26.5659 29.3333 25.309 29.1452 24.1219 28.7946L25.1016 27.325C25.4218 26.8448 25.9938 26.597 26.5631 26.6918L29.0173 27.1009C30.0562 27.274 30.576 28.4507 30.0146 29.3333H27.8667Z" fill="black"/>
<path fill-rule="evenodd" clip-rule="evenodd" d="M4.04501e-05 22C4.04501e-05 9.84974 9.84978 0 22 0C34.1503 0 44 9.84974 44 22C44 34.1503 34.1503 44 22 44C17.3774 44 13.0843 42.5727 9.54232 40.1353L2.12262 43.8452C1.55797 44.1275 0.876012 44.0168 0.429617 43.5704C-0.0167779 43.124 -0.127445 42.4421 0.154881 41.8774L3.86473 34.4577C1.42731 30.9157 4.04501e-05 26.6227 4.04501e-05 22ZM12.4056 11.9669L13.0117 11.5628C15.6684 9.7917 19.2676 11.351 19.7925 14.5005L20.2016 16.9547C20.4862 18.6626 19.7428 20.3786 18.3021 21.3391L16.3713 22.6263C17.5528 24.7136 19.2864 26.4472 21.3737 27.6287L22.6609 25.6979C23.6214 24.2572 25.3374 23.5138 27.0453 23.7984L29.4996 24.2075C32.649 24.7324 34.2083 28.3316 32.4372 30.9883L32.0324 31.5955C31.7711 31.9994 31.3168 32.2667 30.8 32.2667H27.8667C18.9565 32.2667 11.7333 25.0435 11.7333 16.1333V13.2C11.7333 12.6827 12.0011 12.228 12.4056 11.9669Z" fill="black"/>
</svg>
